…
#### 16.2.1\. 加载和探索 GvHD 数据集

现在让我们加载数据，这些数据内置在 mclust 包中，将其转换为 tibble（使用`as_tibble()`），并对其进行一些探索。我们有一个包含 6,809 个案例和 4 个变量的 tibble，每个变量都是测量在每个细胞表面的不同蛋白质。

##### 列表 16.1\. 加载和探索 GvHD 数据集

```
data(GvHD, package = "mclust")

gvhdTib <- as_tibble(GvHD.control)
gvhdTib

# A tibble: 6,809 x 4
     CD4  CD8b   CD3   CD8
   <dbl> <dbl> <dbl> <dbl>
 1   199   420   132   226
 2   294   311   241   164
 3    85    79    14   218
 4    19     1   141   130
 5    35    29     6   135
 6   376   346   138   176
 7    97   329   527   406
 8   200   342   145   189
 9   422   433   163    47
10   391   390   147   190
# ... with 6,799 more rows
```
…
让我们从加载 tidyverse 和加载数据开始，这些数据是 mclust 包的一部分。我们将使用瑞士纸币数据集，我们在第十三章（kindle_split_025.html#ch13）和第十四章（kindle_split_026.html#ch14）中对其应用了 PCA、t-SNE 和 UMAP。一旦我们加载数据，我们将将其转换为 tibble，并在对数据进行缩放后创建一个单独的 tibble（因为 DBSCAN 和 OPTICS 对变量尺度敏感）。因为我们将假设我们没有地面实况，所以我们移除了`Status`变量，该变量指示哪些纸币是真钞，哪些是假钞。回想一下，tibble 包含 200 张瑞士纸币，有 6 个关于其尺寸的测量值。

##### 列表 18.1\. 加载 tidyverse 包和数据集

```
library(tidyverse)

data(banknote, package = "mclust")

swissTib <- select(banknote, -Status) %>%
  as_tibble()

swissTib

# A tibble: 200 x 6
   Length  Left Right Bottom   Top Diagonal
    <dbl> <dbl> <dbl>  <dbl> <dbl>    <dbl>
 1   215\.  131   131\.    9     9.7     141
 2   215\.  130\.  130\.    8.1   9.5     142.
 3   215\.  130\.  130\.    8.7   9.6     142.
 4   215\.  130\.  130\.    7.5  10.4     142
 5   215   130\.  130\.   10.4   7.7     142.
 6   216\.  131\.  130\.    9    10.1     141.
 7   216\.  130\.  130\.    7.9   9.6     142.
 8   214\.  130\.  129\.    7.2  10.7     142.
 9   215\.  129\.  130\.    8.2  11       142.
10   215\.  130\.  130\.    9.2  10       141.
# ... with 190 more rows
…
##### 注意

这里为了节省空间，已截断输出。

| |
| --- |

##### 列表 18.6\. DBSCAN 排列的聚类成员关系

```
clusterResults <- map_dfc(swissDbs, ~.$cluster)

clusterResults

# A tibble: 200 x 81
      V1    V2    V3    V4    V5    V6    V7    V8    V9   V10   V11
   <int> <int> <int> <int> <int> <int> <int> <int> <int> <int> <int>
 1     1     1     1     1     1     1     1     1     1     0     0
 2     2     2     2     2     2     2     2     2     2     1     1
 3     2     2     2     2     2     2     2     2     2     1     1
 4     2     2     2     2     2     2     2     2     2     1     1
 5     3     3     3     3     3     3     3     3     2     0     0
 6     4     4     4     4     4     2     2     2     2     0     0
 7     5     2     2     2     2     2     2     2     2     0     1
 8     2     2     2     2     2     2     2     2     2     1     1
 9     2     2     2     2     2     2     2     2     2     1     1
10     6     2     2     2     2     2     2     2     2     2     1
# ... with 190 more rows, and 70 more variables
```
…
##### 注意

再次，为了节省空间，我稍微截断了输出。

| |
| --- |

##### 列表 18.7\. 将聚类成员绑定到原始数据

```
swissClusters <- bind_cols(swissTib, clusterResults)

swissClusters

# A tibble: 200 x 87
   Length  Left Right Bottom   Top Diagonal    V1    V2    V3    V4
    <dbl> <dbl> <dbl>  <dbl> <dbl>    <dbl> <int> <int> <int> <int>
 1   215\.  131   131\.    9     9.7     141      1     1     1     1
 2   215\.  130\.  130\.    8.1   9.5     142\.     2     2     2     2
 3   215\.  130\.  130\.    8.7   9.6     142\.     2     2     2     2
 4   215\.  130\.  130\.    7.5  10.4     142      2     2     2     2
 5   215   130\.  130\.   10.4   7.7     142\.     3     3     3     3
 6   216\.  131\.  130\.    9    10.1     141\.     4     4     4     4
 7   216\.  130\.  130\.    7.9   9.6     142\.     5     2     2     2
 8   214\.  130\.  129\.    7.2  10.7     142\.     2     2     2     2
 9   215\.  129\.  130\.    8.2  11       142\.     2     2     2     2
10   215\.  130\.  130\.    9.2  10       141\.     6     2     2     2
# ... with 190 more rows, and 77 more variables
```

为了绘制结果，我们希望按排列进行分面，这样我们就可以为超参数的每个组合绘制一个单独的子图。为此，我们需要 `gather()` 数据以创建一个新列，指示排列编号，另一个列指示聚类编号。

##### 列表 18.8\. 收集数据，准备绘图

```
swissClustersGathered <- gather(swissClusters,
                                key = "Permutation", value = "Cluster",
                                -Length, -Left, -Right,
                                -Bottom, -Top, -Diagonal)
swissClustersGathered

# A tibble: 16,200 x 8
   Length  Left Right Bottom   Top Diagonal Permutation Cluster
    <dbl> <dbl> <dbl>  <dbl> <dbl>    <dbl> <chr>         <int>
 1   215\.  131   131\.    9     9.7     141  V1                1
 2   215\.  130\.  130\.    8.1   9.5     142\. V1                2
 3   215\.  130\.  130\.    8.7   9.6     142\. V1                2
 4   215\.  130\.  130\.    7.5  10.4     142  V1                2
 5   215   130\.  130\.   10.4   7.7     142\. V1                3
 6   216\.  131\.  130\.    9    10.1     141\. V1                4
 7   216\.  130\.  130\.    7.9   9.6     142\. V1                5
 8   214\.  130\.  129\.    7.2  10.7     142\. V1                2
 9   215\.  129\.  130\.    8.2  11       142\. V1                2
10   215\.  130\.  130\.    9.2  10       141\. V1                6
# ... with 16,190 more rows
```
…
