…
##### 列表 9.1\. 加载和探索 `Ozone` 数据集

```
data(Ozone, package = "mlbench")

ozoneTib <- as_tibble(Ozone)

names(ozoneTib) <- c("Month", "Date", "Day", "Ozone", "Press_height",
                     "Wind", "Humid", "Temp_Sand", "Temp_Monte",
                     "Inv_height", "Press_grad", "Inv_temp", "Visib")

ozoneTib

# A tibble: 366 x 13
   Month Date  Day   Ozone Press_height  Wind Humid Temp_Sand Temp_Monte
   <fct> <fct> <fct> <dbl>        <dbl> <dbl> <dbl>     <dbl>      <dbl>
 1 1     1     4         3         5480     8    20        NA       NA
 2 1     2     5         3         5660     6    NA        38       NA
 3 1     3     6         3         5710     4    28        40       NA
 4 1     4     7         5         5700     3    37        45       NA
 5 1     5     1         5         5760     3    51        54       45.3
 6 1     6     2         6         5720     4    69        35       49.6
 7 1     7     3         4         5790     6    19        45       46.4
 8 1     8     4         4         5790     3    25        55       52.7
 9 1     9     5         6         5700     3    73        41       48.0
10 1     10    6         7         5700     3    59        44       NA
# ... with 356 more rows, and 4 more variables: Inv_height <dbl>,
#   Press_grad <dbl>, Inv_temp <dbl>, Visib <dbl>
```
…
| |
| --- |

接下来，这个数据集中有一些缺失数据（使用 `map_dbl(ozoneTib, ~sum(is .na(.)))` 来查看有多少）。在我们的预测变量中，缺失数据是可以接受的（我们稍后会使用插补来处理这个问题），但我们不能接受我们试图预测的变量的缺失数据。因此，我们通过将 `mutate_all()` 调用的结果通过管道传递到 `filter()` 函数中，移除没有臭氧测量的案例，从而移除具有 `NA` 值的 `Ozone` 的案例。

##### 列表 9.2\. 清洗数据

```
ozoneClean <- mutate_all(ozoneTib, as.numeric) %>%
  filter(is.na(Ozone) == FALSE)

ozoneClean

# A tibble: 361 x 13
   Month  Date   Day Ozone Press_height  Wind Humid Temp_Sand Temp_Monte
   <dbl> <dbl> <dbl> <dbl>        <dbl> <dbl> <dbl>     <dbl>      <dbl>
 1     1     1     4     3         5480     8    20        NA       NA
 2     1     2     5     3         5660     6    NA        38       NA
 3     1     3     6     3         5710     4    28        40       NA
 4     1     4     7     5         5700     3    37        45       NA
 5     1     5     1     5         5760     3    51        54       45.3
# ... with 356 more rows, and 4 more variables: Inv_height <dbl>,
#   Press_grad <dbl>, Inv_temp <dbl>, Visib <dbl>
```
…
| |
| --- |

我们有一个包含仅 33 个案例和 10 个变量的 tibble，这些变量包括各种降雨量和温度测量值、年份和小麦产量。

##### 列表 11.1\. 加载和探索 `Iowa` 数据集

```
data(Iowa, package = "lasso2")

iowaTib <- as_tibble(Iowa)

iowaTib

# A tibble: 33 x 10
    Year Rain0 Temp1 Rain1 Temp2 Rain2 Temp3 Rain3 Temp4 Yield
   <int> <dbl> <dbl> <dbl> <dbl> <dbl> <dbl> <dbl> <dbl> <dbl>
 1  1930  17.8  60.2  5.83  69    1.49  77.9  2.42  74.4  34
 2  1931  14.8  57.5  3.83  75    2.72  77.2  3.3   72.6  32.9
 3  1932  28.0  62.3  5.17  72    3.12  75.8  7.1   72.2  43
 4  1933  16.8  60.5  1.64  77.8  3.45  76.4  3.01  70.5  40
 5  1934  11.4  69.5  3.49  77.2  3.85  79.7  2.84  73.4  23
 6  1935  22.7  55    7     65.9  3.35  79.4  2.42  73.6  38.4
 7  1936  17.9  66.2  2.85  70.1  0.51  83.4  3.48  79.2  20
 8  1937  23.3  61.8  3.8   69    2.63  75.9  3.99  77.8  44.6
 9  1938  18.5  59.5  4.67  69.2  4.24  76.5  3.82  75.7  46.3
10  1939  18.6  66.4  5.32  71.4  3.15  76.2  4.72  70.7  52.2
# ... with 23 more rows
```
…
mlr 包方便地包含几个预定义的任务，以帮助您尝试不同的学习者和过程。我们将在本章中使用的数据集包含在 mlr 的 `fuelsubset.task` 中。我们以加载任何内置数据集相同的方式将此任务加载到我们的 R 会话中：使用 `data()` 函数。然后我们可以使用 mlr 的 `getTaskData()` 函数从任务中提取数据，以便我们可以探索它。像往常一样，我们使用 `as_tibble()` 函数将数据框转换为 tibble。

##### 列表 12.1\. 加载和探索燃料数据集

```
data("fuelsubset.task")

fuel <- getTaskData(fuelsubset.task)

fuelTib <- as_tibble(fuel)

fuelTib

# A tibble: 129 x 367
   heatan   h20 UVVIS.UVVIS.1 UVVIS.UVVIS.2 UVVIS.UVVIS.3 UVVIS.UVVIS.4
    <dbl> <dbl>         <dbl>         <dbl>         <dbl>         <dbl>
 1   26.8  2.3         0.874          0.748        0.774         0.747
 2   27.5  3          -0.855         -1.29        -0.833        -0.976
 3   23.8  2.00       -0.0847        -0.294       -0.202        -0.262
 4   18.2  1.85       -0.582         -0.485       -0.328        -0.539
 5   17.5  2.39       -0.644         -1.12        -0.665        -0.791
 6   20.2  2.43       -0.504         -0.890       -0.662        -0.744
 7   15.1  1.92       -0.569         -0.507       -0.454        -0.576
 8   20.4  3.61        0.158          0.186        0.0303        0.183
 9   26.7  2.5         0.334          0.191        0.0777        0.0410
10   24.9  1.28        0.0766         0.266        0.0808       -0.0733
# ... with 119 more rows, and 361 more variables
```
…
`str_extract()`函数在字符字符串中查找特定的模式，并返回该模式。在列表 12.2 的例子中，我们要求该函数查找任何数字，使用`\\d`。`\\d`后面的`+`告诉函数该模式可能被匹配多次。例如，比较`str_extract("hello123", "\\d")`和`str_extract("hello123", "\\d+")`的输出。

##### 列表 12.2\. 准备绘图数据

```
fuelUntidy <- fuelTib %>%
  mutate(id = 1:nrow(.)) %>%
  gather(key = "variable", value = "absorbance",
  c(-heatan, -h20, -id)) %>%
  mutate(spectrum = str_sub(variable, 1, 3),
         wavelength = as.numeric(str_extract(variable, "(\\d)+")))

fuelUntidy
# A tibble: 47,085 x 7
   heatan   h20    id variable      absorbance spectrum wavelength
    <dbl> <dbl> <int> <chr>              <dbl> <chr>         <dbl>
 1   26.8  2.3      1 UVVIS.UVVIS.1     0.874  UVV               1
 2   27.5  3        2 UVVIS.UVVIS.1    -0.855  UVV               1
 3   23.8  2.00     3 UVVIS.UVVIS.1    -0.0847 UVV               1
 4   18.2  1.85     4 UVVIS.UVVIS.1    -0.582  UVV               1
 5   17.5  2.39     5 UVVIS.UVVIS.1    -0.644  UVV               1
 6   20.2  2.43     6 UVVIS.UVVIS.1    -0.504  UVV               1
 7   15.1  1.92     7 UVVIS.UVVIS.1    -0.569  UVV               1
 8   20.4  3.61     8 UVVIS.UVVIS.1     0.158  UVV               1
 9   26.7  2.5      9 UVVIS.UVVIS.1     0.334  UVV               1
10   24.9  1.28    10 UVVIS.UVVIS.1     0.0766 UVV               1
# ... with 47,075 more rows
```
…
