…
diabetesTib <- as_tibble(diabetes)

summary(diabetesTib)

class       glucose       insulin            sspg
Chemical:36    Min.   : 70   Min.   :  45.0   Min.   : 10.0
Normal  :76    1st Qu.: 90   1st Qu.: 352.0   1st Qu.:118.0
Overt   :33    Median : 97   Median : 403.0   Median :156.0
               Mean   :122   Mean   : 540.8   Mean   :186.1
               3rd Qu.:112   3rd Qu.: 558.0   3rd Qu.:221.0
               Max.   :353   Max.   :1568.0   Max.   :748.0

diabetesTib

# A tibble: 145 x 4
   class  glucose insulin  sspg
 * <fct>    <dbl>   <dbl> <dbl>
 1 Normal      80     356   124
 2 Normal      97     289   117
 3 Normal     105     319   143
 4 Normal      90     356   199
 5 Normal      90     323   240
 6 Normal      86     381   157
 7 Normal     100     350   221
 8 Normal      85     301   186
 9 Normal      97     379   142
10 Normal      97     296   131
# ... with 135 more rows
```
…
现在让我们加载数据，该数据包含在`titanic`包中，将其转换为 tibble（使用`as_tibble()`），并对其进行初步探索。我们有一个包含 891 个案例和 12 个乘客变量的 tibble，这些乘客来自*泰坦尼克号*。我们的目标是训练一个模型，可以使用这些变量中的信息来预测乘客是否能在灾难中幸存。

##### 列表 4.1\. 加载和探索*泰坦尼克号*数据集

```
install.packages("titanic")

data(titanic_train, package = "titanic")

titanicTib <- as_tibble(titanic_train)

titanicTib

# A tibble: 891 x 12
   PassengerId Survived Pclass Name  Sex     Age SibSp Parch Ticket
         <int>    <int>  <int> <chr> <chr> <dbl> <int> <int> <chr>
 1           1        0      3 Brau… male     22     1     0 A/5 2…
 2           2        1      1 Cumi… fema…    38     1     0 PC 17…
 3           3        1      3 Heik… fema…    26     0     0 STON/…
 4           4        1      1 Futr… fema…    35     1     0 113803
 5           5        0      3 Alle… male     35     0     0 373450
 6           6        0      3 Mora… male     NA     0     0 330877
 7           7        0      1 McCa… male     54     0     0 17463
 8           8        0      3 Pals… male      2     3     1 349909
 9           9        1      3 John… fema…    27     0     2 347742
10          10        1      2 Nass… fema…    14     1     0 237736
# … with 881 more rows, and 3 more variables: Fare <dbl>,
#   Cabin <chr>, Embarked <chr>
```
…
这三个任务（转换为因子、特征工程和特征选择）都在 列表 4.2 中执行。我通过定义一个我们希望转换为因子的变量向量来简化了我们的工作，然后使用 `mutate_at()` 函数将它们全部转换为因子。`mutate_at()` 函数类似于 `mutate()` 函数，但它允许我们一次修改多个列。我们将现有变量作为字符向量提供给 `.vars` 参数，并使用 `.funs` 参数告诉它对这些变量要做什么。在这种情况下，我们提供了我们定义的变量向量，以及将它们转换为因子的“factor”函数。我们将这个结果通过管道传递给一个 `mutate()` 函数调用，该调用定义了一个新变量 `FamSize`，它是 `SibSp` 和 `Parch` 的总和。最后，我们将这个结果通过管道传递给一个 `select()` 函数调用，以选择我们相信可能对我们的模型有某些预测价值的变量。

##### 列表 4.2\. 清理 *泰坦尼克号* 数据，准备建模

```
fctrs <- c("Survived", "Sex", "Pclass")

titanicClean <- titanicTib %>%
  mutate_at(.vars = fctrs, .funs = factor) %>%
  mutate(FamSize = SibSp + Parch) %>%
  select(Survived, Pclass, Sex, Age, Fare, FamSize)

titanicClean

# A tibble: 891 x 6
   Survived Pclass Sex      Age  Fare FamSize
   <fct>    <fct>  <fct>  <dbl> <dbl>   <int>
 1 0        3      male      22  7.25       1
 2 1        1      female    38 71.3        1
 3 1        3      female    26  7.92       0
 4 1        1      female    35 53.1        1
 5 0        3      male      35  8.05       0
 6 0        3      male      NA  8.46       0
 7 0        1      male      54 51.9        0
 8 0        3      male       2 21.1        4
 9 1        3      female    27 11.1        2
10 1        2      female    14 30.1        1
# … with 881 more rows
```
…
##### 注意

`gather()` 函数将警告“度量变量之间的属性不相同；它们将被丢弃。”这只是一个警告，告诉你你正在收集在一起的变量没有相同的因子水平。通常这可能会意味着你意外地合并了你不打算合并的变量，但在这个情况下我们可以安全地忽略这个警告。


##### 列表 4.3\. 创建用于绘制的杂乱 tibble

```
titanicUntidy <- gather(titanicClean, key = "Variable", value = "Value",
                        -Survived)
titanicUntidy

# A tibble: 4,455 x 3
   Survived Variable Value
   <fct>    <chr>    <chr>
 1 0        Pclass   3
 2 1        Pclass   1
 3 1        Pclass   3
 4 1        Pclass   1
 5 0        Pclass   3
 6 0        Pclass   3
 7 0        Pclass   1
 8 0        Pclass   3
 9 1        Pclass   3
10 1        Pclass   2
# … with 4,445 more rows
```
…
三位其他（竞争对手）葡萄酒生产商也在晚宴上，他们是你的主要嫌疑人。如果你能追踪到这些葡萄园之一，你就能找到凶手。幸运的是，你能够访问到来自每个葡萄园的葡萄酒的一些之前的化学分析，并且你要求对犯罪现场中的有毒酒壶进行分析。你的任务是构建一个模型，告诉你含有砒霜的葡萄酒来自哪个葡萄园，因此找出罪犯。

让我们加载 HDclassif 包中内置的葡萄酒数据，将其转换为 tibble，并对其进行一些探索。我们有一个包含 178 个案例和 14 个变量（对各种葡萄酒瓶进行的测量）的 tibble。

##### 列表 5.1\. 加载和探索葡萄酒数据集

```
install.packages("HDclassif")

data(wine, package = "HDclassif")

wineTib <- as_tibble(wine)
wineTib

# A tibble: 178 x 14
   class    V1    V2    V3    V4    V5    V6    V7    V8    V9
   <int> <dbl> <dbl> <dbl> <dbl> <int> <dbl> <dbl> <dbl> <dbl>
 1     1  14.2  1.71  2.43  15.6   127  2.8   3.06 0.28   2.29
 2     1  13.2  1.78  2.14  11.2   100  2.65  2.76 0.26   1.28
 3     1  13.2  2.36  2.67  18.6   101  2.8   3.24 0.3    2.81
 4     1  14.4  1.95  2.5   16.8   113  3.85  3.49 0.24   2.18
 5     1  13.2  2.59  2.87  21     118  2.8   2.69 0.39   1.82
 6     1  14.2  1.76  2.45  15.2   112  3.27  3.39 0.34   1.97
 7     1  14.4  1.87  2.45  14.6    96  2.5   2.52 0.3    1.98
 8     1  14.1  2.15  2.61  17.6   121  2.6   2.51 0.31   1.25
 9     1  14.8  1.64  2.17  14      97  2.8   2.98 0.290  1.98
10     1  13.9  1.35  2.27  16      98  2.98  3.15 0.22   1.85
# ... with 168 more rows, and 4 more variables: V10 <dbl>,
#   V11 <dbl>, V12 <dbl>, V13 <int>
```

通常，作为数据科学家，我们接收到的数据可能是杂乱无章的或者整理得不够好。在这种情况下，变量的名称缺失！我们可以继续使用 `V1`、`V2` 等等，但很难追踪哪个变量是哪个。因此，我们将手动添加变量名称。谁说数据科学家的生活是光鲜亮丽的？然后，我们将 `class` 变量转换为因子。

##### 列表 5.2\. 清洗数据集

```
names(wineTib) <- c("Class", "Alco", "Malic", "Ash", "Alk", "Mag",
                    "Phe", "Flav", "Non_flav", "Proan", "Col", "Hue",
                    "OD", "Prol")

wineTib$Class <- as.factor(wineTib$Class)

wineTib

# A tibble: 178 x 14
   Class  Alco Malic   Ash   Alk   Mag   Phe  Flav Non_flav Proan
   <fct> <dbl> <dbl> <dbl> <dbl> <int> <dbl> <dbl>    <dbl> <dbl>
 1 1      14.2  1.71  2.43  15.6   127  2.8   3.06    0.28   2.29
 2 1      13.2  1.78  2.14  11.2   100  2.65  2.76    0.26   1.28
 3 1      13.2  2.36  2.67  18.6   101  2.8   3.24    0.3    2.81
 4 1      14.4  1.95  2.5   16.8   113  3.85  3.49    0.24   2.18
 5 1      13.2  2.59  2.87  21     118  2.8   2.69    0.39   1.82
 6 1      14.2  1.76  2.45  15.2   112  3.27  3.39    0.34   1.97
 7 1      14.4  1.87  2.45  14.6    96  2.5   2.52    0.3    1.98
 8 1      14.1  2.15  2.61  17.6   121  2.6   2.51    0.31   1.25
 9 1      14.8  1.64  2.17  14      97  2.8   2.98    0.290  1.98
10 1      13.9  1.35  2.27  16      98  2.98  3.15    0.22   1.85
# ... with 168 more rows, and 4 more variables: Col <dbl>,
#   Hue <dbl>, OD <dbl>, Prol <int>
```
…
| |
| --- |

我们有一个包含 1984 年众议院 435 名成员的 17 个变量的 tibble。`Class`变量是一个因子，表示政党成员资格，其他 16 个变量是因子，表示个人在每个 16 个投票上的投票情况。`y`值表示他们投了赞成票，`n`值表示他们投了反对票，而缺失值（`NA`）表示个人弃权或未投票。我们的目标是训练一个模型，该模型可以使用这些变量中的信息，根据议员如何投票来预测他们是否是民主党人或共和党人。

##### 列表 6.1. 加载和探索`HouseVotes84`数据集

```
data(HouseVotes84, package = "mlbench")

votesTib <- as_tibble(HouseVotes84)

votesTib

# A tibble: 435 x 17
   Class V1    V2    V3    V4    V5    V6    V7    V8    V9    V10
   <fct> <fct> <fct> <fct> <fct> <fct> <fct> <fct> <fct> <fct> <fct>
 1 repu... n     y     n     y     y     y     n     n     n     y
 2 repu... n     y     n     y     y     y     n     n     n     n
 3 demo... NA    y     y     NA    y     y     n     n     n     n
 4 demo... n     y     y     n     NA    y     n     n     n     n
 5 demo... y     y     y     n     y     y     n     n     n     n
 6 demo... n     y     y     n     y     y     n     n     n     n
 7 demo... n     y     n     y     y     y     n     n     n     n
 8 repu... n     y     n     y     y     y     n     n     n     n
 9 repu... n     y     n     y     y     y     n     n     n     n
10 demo... y     y     y     n     n     n     y     y     y     n
# ... with 425 more rows, and 6 more variables: V11 <fct>, V12 <fct>,
#   V13 <fct>, V14 <fct>, V15 <fct>, V16 <fct>
```
…
除了表示电子邮件是否为垃圾邮件的因子 `type` 之外，所有变量都是连续的，因为 SVM 算法无法处理分类预测变量。

| |
| --- |

##### 列表 6.7\. 加载和探索垃圾邮件数据集

```
data(spam, package = "kernlab")

spamTib <- as_tibble(spam)

spamTib

# A tibble: 4,601 x 58
    make address   all num3d   our  over remove internet order  mail
   <dbl>   <dbl> <dbl> <dbl> <dbl> <dbl>  <dbl>    <dbl> <dbl> <dbl>
 1  0       0.64  0.64     0  0.32  0      0        0     0     0
 2  0.21    0.28  0.5      0  0.14  0.28   0.21     0.07  0     0.94
 3  0.06    0     0.71     0  1.23  0.19   0.19     0.12  0.64  0.25
 4  0       0     0        0  0.63  0      0.31     0.63  0.31  0.63
 5  0       0     0        0  0.63  0      0.31     0.63  0.31  0.63
 6  0       0     0        0  1.85  0      0        1.85  0     0
 7  0       0     0        0  1.92  0      0        0     0     0.64
 8  0       0     0        0  1.88  0      0        1.88  0     0
 9  0.15    0     0.46     0  0.61  0      0.3      0     0.92  0.76
10  0.06    0.12  0.77     0  0.19  0.32   0.38     0     0.06  0
# ... with 4,591 more rows, and 48 more variables...
```
…
### 7.3\. 加载和探索 zoo 数据集

让我们加载内置在 mlbench 包中的 zoo 数据集，将其转换为 tibble，并对其进行探索。我们有一个包含 101 个案例和 17 个变量的 tibble，这些变量是关于各种动物观察的结果；其中 16 个变量是逻辑变量，表示某些特征的缺失或存在，而`type`变量是一个因子，包含我们希望预测的动物类别。

##### 列表 7.1\. 加载和探索 zoo 数据集

```
data(Zoo, package = "mlbench")

zooTib <- as_tibble(Zoo)

zooTib

# A tibble: 101 x 17
   hair  feathers eggs  milk  airborne aquatic predator toothed backbone
   <lgl> <lgl>    <lgl> <lgl> <lgl>    <lgl>   <lgl>    <lgl>   <lgl>
 1 TRUE  FALSE    FALSE TRUE  FALSE    FALSE   TRUE     TRUE    TRUE
 2 TRUE  FALSE    FALSE TRUE  FALSE    FALSE   FALSE    TRUE    TRUE
 3 FALSE FALSE    TRUE  FALSE FALSE    TRUE    TRUE     TRUE    TRUE
 4 TRUE  FALSE    FALSE TRUE  FALSE    FALSE   TRUE     TRUE    TRUE
 5 TRUE  FALSE    FALSE TRUE  FALSE    FALSE   TRUE     TRUE    TRUE
 6 TRUE  FALSE    FALSE TRUE  FALSE    FALSE   FALSE    TRUE    TRUE
 7 TRUE  FALSE    FALSE TRUE  FALSE    FALSE   FALSE    TRUE    TRUE
 8 FALSE FALSE    TRUE  FALSE FALSE    TRUE    FALSE    TRUE    TRUE
 9 FALSE FALSE    TRUE  FALSE FALSE    TRUE    TRUE     TRUE    TRUE
10 TRUE  FALSE    FALSE TRUE  FALSE    FALSE   FALSE    TRUE    TRUE
# ... with 91 more rows, and 8 more variables: breathes <lgl>, venomous <lgl>,
#   fins <lgl>, legs <int>, tail <lgl>, domestic <lgl>, catsize <lgl>,
#   type <fct>
```
…
