…
#### 2.4.1\. 使用 dplyr 操作 CO2 数据集

让我们在 R 中加载内置的 CO2 数据集。我们有一个包含 84 个案例和 5 个变量的 tibble，记录了在不同条件下不同植物对二氧化碳的吸收情况。我将使用这个数据集来教你们一些基本的 dplyr 技能。

##### 列表 2.2\. 探索 CO2 数据集

```
library(tibble)

data(CO2)

CO2tib <- as_tibble(CO2)
CO2tib

# A tibble: 84 x 5
   Plant Type   Treatment   conc uptake
 * <ord> <fct>  <fct>      <dbl>  <dbl>
 1 Qn1   Quebec nonchilled    95   16
 2 Qn1   Quebec nonchilled   175   30.4
 3 Qn1   Quebec nonchilled   250   34.8
 4 Qn1   Quebec nonchilled   350   37.2
 5 Qn1   Quebec nonchilled   500   35.3
 6 Qn1   Quebec nonchilled   675   39.2
 7 Qn1   Quebec nonchilled  1000   39.7
 8 Qn2   Quebec nonchilled    95   13.6
 9 Qn2   Quebec nonchilled   175   27.3
10 Qn2   Quebec nonchilled   250   37.1
# ... with 74 more rows
```

假设我们只想 *选择* 第 1、2、3 和 5 列。我们可以使用 `select()` 函数来完成这个操作。在以下列表中的 `select()` 函数调用中，第一个参数是数据；然后我们提供我们希望选择的列的数字或名称，用逗号分隔。

##### 列表 2.3\. 使用 `select()` 选择列

```
library(dplyr)

selectedData <- select(CO2tib, 1, 2, 3, 5)

selectedData

# A tibble: 84 x 4
   Plant Type   Treatment  uptake
 * <ord> <fct>  <fct>       <dbl>
 1 Qn1   Quebec nonchilled   16
 2 Qn1   Quebec nonchilled   30.4
 3 Qn1   Quebec nonchilled   34.8
 4 Qn1   Quebec nonchilled   37.2
 5 Qn1   Quebec nonchilled   35.3
 6 Qn1   Quebec nonchilled   39.2
 7 Qn1   Quebec nonchilled   39.7
 8 Qn2   Quebec nonchilled   13.6
 9 Qn2   Quebec nonchilled   27.3
10 Qn2   Quebec nonchilled   37.1
# ... with 74 more rows
```
**练习 2**

选择你的 `mtcars` tibble 的所有列，除了 `qsec` 和 `vs` 变量。


现在假设我们希望 *过滤* 数据，只包含吸收量大于 16 的案例。我们可以使用 `filter()` 函数来完成这个操作。`filter()` 的第一个参数再次是数据，第二个参数是一个逻辑表达式，它将对每一行进行评估。我们可以通过逗号分隔来包含多个条件。

##### 列表 2.4\. 使用 `filter()` 过滤行

```
filteredData <- filter(selectedData, uptake > 16)

filteredData

# A tibble: 66 x 4
   Plant Type   Treatment  uptake
   <ord> <fct>  <fct>       <dbl>
 1 Qn1   Quebec nonchilled   30.4
 2 Qn1   Quebec nonchilled   34.8
 3 Qn1   Quebec nonchilled   37.2
 4 Qn1   Quebec nonchilled   35.3
 5 Qn1   Quebec nonchilled   39.2
 6 Qn1   Quebec nonchilled   39.7
 7 Qn2   Quebec nonchilled   27.3
 8 Qn2   Quebec nonchilled   37.1
 9 Qn2   Quebec nonchilled   41.8
10 Qn2   Quebec nonchilled   40.6
# ... with 56 more rows
```
…
过滤你的 `mtcars` tibble，只包含气缸数（`cyl`）不等于 8 的案例。


接下来，我们希望按单个植物 *分组* 并使用 `group_by()` 和 `summarize()` 函数分别对数据进行汇总，以获取每个组内吸收量的平均值和标准差。

在 `group_by()` 函数中，第一个参数是——没错——数据（看这里的模式？），后面跟着分组变量。我们可以通过逗号分隔来按多个变量进行分组。当我们打印 `groupedData` 时，除了数据上方有一个表示它们已分组的指示，以及它们是根据哪个变量分组的以及有多少组之外，没有太多变化。这告诉我们，我们将对每个组进行进一步的操作。

##### 列表 2.5\. 使用 `group_by()` 分组数据

```
groupedData <- group_by(filteredData, Plant)

groupedData

# A tibble: 66 x 4
# Groups:   Plant [11]
   Plant Type   Treatment  uptake
   <ord> <fct>  <fct>       <dbl>
 1 Qn1   Quebec nonchilled   30.4
 2 Qn1   Quebec nonchilled   34.8
 3 Qn1   Quebec nonchilled   37.2
 4 Qn1   Quebec nonchilled   35.3
 5 Qn1   Quebec nonchilled   39.2
 6 Qn1   Quebec nonchilled   39.7
 7 Qn2   Quebec nonchilled   27.3
 8 Qn2   Quebec nonchilled   37.1
 9 Qn2   Quebec nonchilled   41.8
10 Qn2   Quebec nonchilled   40.6
# ... with 56 more rows
```
…
