…
我们将首先加载 tidyverse 包，从 mclust 包中加载数据，并将数据框转换为 tibble。我们有一个包含 200 张纸币的 tibble，有 7 个变量。

##### 列表 13.1\. 加载银行券数据集

```
library(tidyverse)

data(banknote, package = "mclust")

swissTib <- as_tibble(banknote)

swissTib

# A tibble: 200 x 7
   Status  Length  Left Right Bottom   Top Diagonal
   <fct>    <dbl> <dbl> <dbl>  <dbl> <dbl>    <dbl>
 1 genuine   215\.  131   131\.    9     9.7     141
 2 genuine   215\.  130\.  130\.    8.1   9.5     142.
 3 genuine   215\.  130\.  130\.    8.7   9.6     142.
 4 genuine   215\.  130\.  130\.    7.5  10.4     142
 5 genuine   215   130\.  130\.   10.4   7.7     142.
 6 genuine   216\.  131\.  130\.    9    10.1     141.
 7 genuine   216\.  130\.  130\.    7.9   9.6     142.
 8 genuine   214\.  130\.  129\.    7.2  10.7     142.
 9 genuine   215\.  129\.  130\.    8.2  11       142.
10 genuine   215\.  130\.  130\.    9.2  10       141.
# ... with 190 more rows
```
…
#### 15.3.1\. 加载和探索跳蚤数据集

现在，让我们加载数据，这些数据是 GGally 包内置的；将其转换为 tibble（使用`as_tibble()`）；并使用我们在第十四章中发现的`ggpairs()`函数绘制它。

##### 列表 15.1\. 加载和探索跳蚤数据集

```
data(flea)

fleaTib <- as_tibble(flea)

fleaTib

# A tibble: 74 x 7
   species  tars1 tars2  head aede1 aede2 aede3
   <fct>    <int> <int> <int> <int> <int> <int>
 1 Concinna   191   131    53   150    15   104
 2 Concinna   185   134    50   147    13   105
 3 Concinna   200   137    52   144    14   102
 4 Concinna   173   127    50   144    16    97
 5 Concinna   171   118    49   153    13   106
 6 Concinna   160   118    47   140    15    99
 7 Concinna   188   134    54   151    14    98
 8 Concinna   186   129    51   143    14   110
 9 Concinna   174   131    52   144    14   116
10 Concinna   163   115    47   142    15    95
# ... with 64 more rows
…
接下来，让我们从 lle 包中加载 lle_scurve_data 数据集，为其变量命名，并将其转换为 tibble。我们有一个包含 800 个案例和 3 个变量的 tibble。

##### 列表 15.8\. 加载 S 曲线数据集

```
data(lle_scurve_data)

colnames(lle_scurve_data) <- c("x", "y", "z")

sTib <- as_tibble(lle_scurve_data)

sTib

# A tibble: 800 x 3
        x     y      z
    <dbl> <dbl>  <dbl>
 1  0.955 4.95  -0.174
 2 -0.660 3.27  -0.773
 3 -0.983 1.26  -0.296
 4  0.954 1.68  -0.180
 5  0.958 0.186 -0.161
 6  0.852 0.558 -0.471
 7  0.168 1.62  -0.978
 8  0.948 2.32   0.215
 9 -0.931 1.51  -0.430
10  0.355 4.06   0.926
# ... with 790 more rows
```
…
